^C:\USERS\TINYTOONE\DOCUMENTS\VISUAL STUDIO 2012\PROJECTS\TESTTASK\TESTTASK\STDAFX.CPP
/c /Zi /nologo /W3 /WX- /sdl /O2 /Oi /Oy- /GL /D WIN32 /D NDEBUG /D _CONSOLE /D _UNICODE /D UNICODE /Gm- /EHsc /MD /GS /Gy /fp:precise /Zc:wchar_t /Zc:forScope /Yc"stdafx.h" /Fp"RELEASE\TESTTASK.PCH" /Fo"RELEASE\\" /Fd"RELEASE\VC110.PDB" /Gd /TP /analyze- C:\USERS\TINYTOONE\DOCUMENTS\VISUAL STUDIO 2012\PROJECTS\TESTTASK\TESTTASK\STDAFX.CPP
^C:\USERS\TINYTOONE\DOCUMENTS\VISUAL STUDIO 2012\PROJECTS\TESTTASK\TESTTASK\TESTTASK.CPP
/c /Zi /nologo /W3 /WX- /sdl /O2 /Oi /Oy- /GL /D WIN32 /D NDEBUG /D _CONSOLE /D _UNICODE /D UNICODE /Gm- /EHsc /MD /GS /Gy /fp:precise /Zc:wchar_t /Zc:forScope /Yu"stdafx.h" /Fp"RELEASE\TESTTASK.PCH" /Fo"RELEASE\\" /Fd"RELEASE\VC110.PDB" /Gd /TP /analyze- C:\USERS\TINYTOONE\DOCUMENTS\VISUAL STUDIO 2012\PROJECTS\TESTTASK\TESTTASK\TESTTASK.CPP
^D:\НОВА ПАПКА (3)\TESTTASK\STDAFX.CPP
/c /Zi /nologo /W3 /WX- /sdl /O2 /Oi /Oy- /GL /D WIN32 /D NDEBUG /D _CONSOLE /D _UNICODE /D UNICODE /Gm- /EHsc /MD /GS /Gy /fp:precise /Zc:wchar_t /Zc:forScope /Yc"stdafx.h" /Fp"RELEASE\TESTTASK.PCH" /Fo"RELEASE\\" /Fd"RELEASE\VC110.PDB" /Gd /TP /analyze- D:\НОВА ПАПКА (3)\TESTTASK\STDAFX.CPP
^D:\НОВА ПАПКА (3)\TESTTASK\TESTTASK.CPP
/c /Zi /nologo /W3 /WX- /sdl /O2 /Oi /Oy- /GL /D WIN32 /D NDEBUG /D _CONSOLE /D _UNICODE /D UNICODE /Gm- /EHsc /MD /GS /Gy /fp:precise /Zc:wchar_t /Zc:forScope /Yu"stdafx.h" /Fp"RELEASE\TESTTASK.PCH" /Fo"RELEASE\\" /Fd"RELEASE\VC110.PDB" /Gd /TP /analyze- D:\НОВА ПАПКА (3)\TESTTASK\TESTTASK.CPP
